{
  "type": "object",
  "properties": {
    "box": {
      "type": "object",
      "properties": {
        "width": {
          "type": "number"
        },
        "height": {
          "type": "number"
        }
      },
      "required": ["width", "height"],
      "additionalProperties": false
    }
  },
  "required": ["box"],
  "additionalProperties": false
}
