{
  "type": "object",
  "properties": {
    "id": {
      "type": "string"
    },
    "name": {
      "type": "string"
    },
    "mime_types": {
      "type": "array",
      "items": {
        "type": "string"
      }
    },
    "model_schema": {
      "$ref": "http://json-schema.org/draft-07/schema"
    }
  },
  "required": ["id", "name", "mime_types", "model_schema"],
  "additionalProperties": false
}
