{
  "type": "object",
  "properties": {
    "id": {
      "type": "string"
    },
    "name": {
      "type": "string"
    },
    "filters": {
      "type": "array",
      "items": {
        "type": "object",
        "properties": {
          "cfg_filter": {
            "type": "string"
          },
          "instance_values": {}
        },
        "required": ["cfg_filter", "instance_values"],
        "additionalProperties": false
      }
    }
  },
  "required": ["id", "name", "filters"],
  "additionalProperties": false
}
